EESchema Schematic File Version 4
EELAYER 30 0
EELAYER END
$Descr A4 11693 8268
encoding utf-8
Sheet 1 1
Title "STM32F070CBT6 board"
Date "2020-02-09"
Rev "1.0"
Comp "Fitzsimons Consulting"
Comment1 ""
Comment2 ""
Comment3 ""
Comment4 ""
$EndDescr
$Comp
L power:GND #PWR0101
U 1 1 5E3E65DD
P 3850 1200
F 0 "#PWR0101" H 3850 950 50  0001 C CNN
F 1 "GND" H 3855 1027 50  0000 C CNN
F 2 "" H 3850 1200 50  0001 C CNN
F 3 "" H 3850 1200 50  0001 C CNN
	1    3850 1200
	1    0    0    -1  
$EndComp
$Comp
L power:VDD #PWR0102
U 1 1 5E3E69AA
P 4150 1200
F 0 "#PWR0102" H 4150 1050 50  0001 C CNN
F 1 "VDD" H 4168 1373 50  0000 C CNN
F 2 "" H 4150 1200 50  0001 C CNN
F 3 "" H 4150 1200 50  0001 C CNN
	1    4150 1200
	-1   0    0    1   
$EndComp
$Comp
L Connector:USB_B_Mini J3
U 1 1 5E3E75AF
P 7350 3000
F 0 "J3" H 7407 3467 50  0000 C CNN
F 1 "USB_B_Mini" H 7407 3376 50  0000 C CNN
F 2 "Connector_USB:USB_Micro-B_Molex-105017-0001" H 7500 2950 50  0001 C CNN
F 3 "~" H 7500 2950 50  0001 C CNN
	1    7350 3000
	1    0    0    -1  
$EndComp
$Comp
L mini_stm32-rescue:USBLC6-2SC6-Power_Protection U2
U 1 1 5E3E7AD5
P 8650 3150
F 0 "U2" H 8650 3831 50  0000 C CNN
F 1 "USBLC6-2SC6" H 8650 3740 50  0000 C CNN
F 2 "Package_TO_SOT_SMD:SOT-23-6" H 7900 3550 50  0001 C CNN
F 3 "http://www2.st.com/resource/en/datasheet/CD00050750.pdf" H 8850 3500 50  0001 C CNN
	1    8650 3150
	1    0    0    -1  
$EndComp
$Comp
L Device:R R3
U 1 1 5E3E92A3
P 9300 2400
F 0 "R3" V 9093 2400 50  0000 C CNN
F 1 "220R" V 9184 2400 50  0000 C CNN
F 2 "Resistor_SMD:R_0603_1608Metric_Pad1.05x0.95mm_HandSolder" V 9230 2400 50  0001 C CNN
F 3 "~" H 9300 2400 50  0001 C CNN
	1    9300 2400
	0    1    1    0   
$EndComp
$Comp
L Device:LED D1
U 1 1 5E3F20FE
P 9750 2400
F 0 "D1" H 9743 2145 50  0000 C CNN
F 1 "LED" H 9743 2236 50  0000 C CNN
F 2 "LED_SMD:LED_0603_1608Metric_Pad1.05x0.95mm_HandSolder" H 9750 2400 50  0001 C CNN
F 3 "~" H 9750 2400 50  0001 C CNN
	1    9750 2400
	-1   0    0    1   
$EndComp
Wire Wire Line
	9600 2400 9450 2400
$Comp
L power:GND #PWR0103
U 1 1 5E3F29C3
P 10150 2400
F 0 "#PWR0103" H 10150 2150 50  0001 C CNN
F 1 "GND" V 10155 2272 50  0000 R CNN
F 2 "" H 10150 2400 50  0001 C CNN
F 3 "" H 10150 2400 50  0001 C CNN
	1    10150 2400
	0    -1   -1   0   
$EndComp
Wire Wire Line
	10150 2400 9900 2400
Wire Wire Line
	9150 2400 8650 2400
Wire Wire Line
	8650 2400 8650 2650
Wire Wire Line
	8650 2400 7900 2400
Wire Wire Line
	7900 2400 7900 2800
Connection ~ 8650 2400
Wire Wire Line
	8150 3250 8000 3250
Wire Wire Line
	8000 3250 8000 3000
Wire Wire Line
	8000 3000 7650 3000
Wire Wire Line
	8650 3650 8650 3750
Wire Wire Line
	8650 3750 8050 3750
Wire Wire Line
	7250 3750 7250 3400
Wire Wire Line
	7350 3400 7350 3750
Connection ~ 7350 3750
Wire Wire Line
	7350 3750 7250 3750
Wire Wire Line
	8150 3050 8150 2800
Wire Wire Line
	8150 2800 9350 2800
Wire Wire Line
	9150 3050 9350 3050
Wire Wire Line
	9150 3250 9200 3250
Wire Wire Line
	9200 3250 9200 3550
Wire Wire Line
	9200 3550 7800 3550
Wire Wire Line
	7800 3550 7800 3100
Wire Wire Line
	7800 3100 7650 3100
Text GLabel 9350 2800 2    50   Input ~ 0
USB+
Text GLabel 9350 3050 2    50   Input ~ 0
USB-
$Comp
L Device:R R1
U 1 1 5E3FAB09
P 3600 2700
F 0 "R1" V 3393 2700 50  0000 C CNN
F 1 "10K" V 3484 2700 50  0000 C CNN
F 2 "Resistor_SMD:R_0603_1608Metric_Pad1.05x0.95mm_HandSolder" V 3530 2700 50  0001 C CNN
F 3 "~" H 3600 2700 50  0001 C CNN
	1    3600 2700
	0    1    1    0   
$EndComp
Wire Wire Line
	3450 2700 3300 2700
$Comp
L Connector:Conn_01x03_Male J1
U 1 1 5E3FC16F
P 3100 2700
F 0 "J1" H 3208 2981 50  0000 C CNN
F 1 "Conn_01x03_Male" H 3208 2890 50  0000 C CNN
F 2 "Connector_PinHeader_2.54mm:PinHeader_1x03_P2.54mm_Vertical" H 3100 2700 50  0001 C CNN
F 3 "~" H 3100 2700 50  0001 C CNN
	1    3100 2700
	1    0    0    -1  
$EndComp
Wire Wire Line
	3300 2600 3400 2600
Wire Wire Line
	3400 2600 3400 2400
Wire Wire Line
	3300 2800 3400 2800
Wire Wire Line
	3400 2800 3400 2950
$Comp
L power:VDD #PWR0105
U 1 1 5E3FDFDB
P 3400 2400
F 0 "#PWR0105" H 3400 2250 50  0001 C CNN
F 1 "VDD" H 3417 2573 50  0000 C CNN
F 2 "" H 3400 2400 50  0001 C CNN
F 3 "" H 3400 2400 50  0001 C CNN
	1    3400 2400
	1    0    0    -1  
$EndComp
Text GLabel 6100 5400 2    50   Input ~ 0
USB+
Text GLabel 6100 5300 2    50   Input ~ 0
USB-
Wire Wire Line
	4600 3300 4250 3300
Wire Wire Line
	4250 3300 4250 2700
Wire Wire Line
	3750 2700 4250 2700
$Comp
L power:GND #PWR0106
U 1 1 5E411CC2
P 2450 3500
F 0 "#PWR0106" H 2450 3250 50  0001 C CNN
F 1 "GND" V 2455 3372 50  0000 R CNN
F 2 "" H 2450 3500 50  0001 C CNN
F 3 "" H 2450 3500 50  0001 C CNN
	1    2450 3500
	0    1    1    0   
$EndComp
$Comp
L Connector:Conn_01x04_Male J2
U 1 1 5E41CCB0
P 4050 800
F 0 "J2" V 4112 1044 50  0000 L CNN
F 1 "Conn_01x04_Male" V 4203 1044 50  0000 L CNN
F 2 "Connector_PinHeader_2.54mm:PinHeader_1x04_P2.54mm_Vertical" H 4050 800 50  0001 C CNN
F 3 "~" H 4050 800 50  0001 C CNN
	1    4050 800 
	0    1    1    0   
$EndComp
$Comp
L Switch:SW_Push SW1
U 1 1 5E41E08F
P 2850 950
F 0 "SW1" H 2850 1235 50  0000 C CNN
F 1 "SW_Push" H 2850 1144 50  0000 C CNN
F 2 "Button_Switch_SMD:SW_SPST_B3S-1000" H 2850 1150 50  0001 C CNN
F 3 "~" H 2850 1150 50  0001 C CNN
	1    2850 950 
	1    0    0    -1  
$EndComp
$Comp
L Device:C C3
U 1 1 5E41E611
P 2850 1250
F 0 "C3" V 2598 1250 50  0000 C CNN
F 1 "100nF" V 2689 1250 50  0000 C CNN
F 2 "Capacitor_SMD:C_0603_1608Metric_Pad1.05x0.95mm_HandSolder" H 2888 1100 50  0001 C CNN
F 3 "~" H 2850 1250 50  0001 C CNN
	1    2850 1250
	0    1    1    0   
$EndComp
Wire Wire Line
	3050 950  3200 950 
Wire Wire Line
	3200 950  3200 1100
Wire Wire Line
	3200 1250 3000 1250
Wire Wire Line
	2700 1250 2500 1250
Wire Wire Line
	2500 1250 2500 1100
Wire Wire Line
	2500 950  2650 950 
$Comp
L power:GND #PWR0108
U 1 1 5E425F1D
P 2400 1100
F 0 "#PWR0108" H 2400 850 50  0001 C CNN
F 1 "GND" V 2405 972 50  0000 R CNN
F 2 "" H 2400 1100 50  0001 C CNN
F 3 "" H 2400 1100 50  0001 C CNN
	1    2400 1100
	0    1    1    0   
$EndComp
Wire Wire Line
	2400 1100 2500 1100
Connection ~ 2500 1100
Wire Wire Line
	2500 1100 2500 950 
Wire Wire Line
	4450 3100 4600 3100
Connection ~ 3200 1100
Wire Wire Line
	3200 1100 3200 1250
Wire Wire Line
	3850 1000 3850 1200
Wire Wire Line
	4150 1000 4150 1200
Text GLabel 6100 5500 2    50   Input ~ 0
SYS_SWDIO
Text GLabel 6100 5600 2    50   Input ~ 0
SYS_SWCLK
Wire Wire Line
	3950 1000 3950 1100
Wire Wire Line
	4050 1000 4050 1100
Text GLabel 3950 1100 3    50   Input ~ 0
SYS_SWCLK
Text GLabel 4050 1100 3    50   Input ~ 0
SYS_SWDIO
$Comp
L MCU_ST_STM32F0:STM32F070CBTx U1
U 1 1 5E3E5AA3
P 5300 4400
F 0 "U1" H 5250 2811 50  0000 C CNN
F 1 "STM32F070CBTx" H 5300 2650 50  0000 C CNN
F 2 "Package_QFP:LQFP-48_7x7mm_P0.5mm" H 4700 3000 50  0001 R CNN
F 3 "http://www.st.com/st-web-ui/static/active/en/resource/technical/document/datasheet/DM00141386.pdf" H 5300 4400 50  0001 C CNN
	1    5300 4400
	1    0    0    -1  
$EndComp
$Comp
L Device:C_Small C5
U 1 1 5E458584
P 6150 1200
F 0 "C5" H 6100 1250 50  0000 L CNN
F 1 "100nF" H 6100 1150 50  0000 L CNN
F 2 "Capacitor_SMD:C_0603_1608Metric_Pad1.05x0.95mm_HandSolder" H 6150 1200 50  0001 C CNN
F 3 "~" H 6150 1200 50  0001 C CNN
	1    6150 1200
	1    0    0    -1  
$EndComp
$Comp
L Device:C_Small C6
U 1 1 5E458A7B
P 6400 1200
F 0 "C6" H 6350 1250 50  0000 L CNN
F 1 "100nF" H 6350 1150 50  0000 L CNN
F 2 "Capacitor_SMD:C_0603_1608Metric_Pad1.05x0.95mm_HandSolder" H 6400 1200 50  0001 C CNN
F 3 "~" H 6400 1200 50  0001 C CNN
	1    6400 1200
	1    0    0    -1  
$EndComp
$Comp
L Device:C_Small C7
U 1 1 5E458E25
P 6550 1200
F 0 "C7" H 6500 1300 50  0000 L CNN
F 1 "100nF" H 6450 1100 50  0000 L CNN
F 2 "Capacitor_SMD:C_0603_1608Metric_Pad1.05x0.95mm_HandSolder" H 6550 1200 50  0001 C CNN
F 3 "~" H 6550 1200 50  0001 C CNN
	1    6550 1200
	1    0    0    -1  
$EndComp
$Comp
L Device:C_Small C8
U 1 1 5E45916F
P 6700 1200
F 0 "C8" H 6650 1250 50  0000 L CNN
F 1 "10nF" H 6700 1150 50  0000 L CNN
F 2 "Capacitor_SMD:C_0603_1608Metric_Pad1.05x0.95mm_HandSolder" H 6700 1200 50  0001 C CNN
F 3 "~" H 6700 1200 50  0001 C CNN
	1    6700 1200
	1    0    0    -1  
$EndComp
Wire Wire Line
	6550 1400 6550 1300
Wire Wire Line
	6550 1100 6550 1050
$Comp
L Device:C_Small C10
U 1 1 5E4C17F7
P 6950 1200
F 0 "C10" H 7042 1246 50  0000 L CNN
F 1 "1uF" H 7042 1155 50  0000 L CNN
F 2 "Capacitor_SMD:C_0603_1608Metric_Pad1.05x0.95mm_HandSolder" H 6950 1200 50  0001 C CNN
F 3 "~" H 6950 1200 50  0001 C CNN
	1    6950 1200
	1    0    0    -1  
$EndComp
$Comp
L Device:C_Small C9
U 1 1 5E4C93A8
P 5900 1200
F 0 "C9" H 5700 1200 50  0000 L CNN
F 1 "4.7uF" H 5650 1100 50  0000 L CNN
F 2 "Capacitor_SMD:C_0603_1608Metric_Pad1.05x0.95mm_HandSolder" H 5900 1200 50  0001 C CNN
F 3 "~" H 5900 1200 50  0001 C CNN
	1    5900 1200
	1    0    0    -1  
$EndComp
Wire Wire Line
	5900 1050 5900 1100
Wire Wire Line
	7650 3200 7650 3750
Connection ~ 7650 3750
Wire Wire Line
	7650 3750 7350 3750
Wire Wire Line
	8050 3750 8050 3900
Connection ~ 8050 3750
Wire Wire Line
	8050 3750 7650 3750
$Comp
L power:GND #PWR0109
U 1 1 5E4DA2DB
P 8300 5400
F 0 "#PWR0109" H 8300 5150 50  0001 C CNN
F 1 "GND" H 8305 5227 50  0000 C CNN
F 2 "" H 8300 5400 50  0001 C CNN
F 3 "" H 8300 5400 50  0001 C CNN
	1    8300 5400
	1    0    0    -1  
$EndComp
$Comp
L Regulator_Linear:TLV1117-33 U3
U 1 1 5E4DCB6D
P 8300 4800
F 0 "U3" H 8300 5042 50  0000 C CNN
F 1 "TLV1117-33" H 8300 4951 50  0000 C CNN
F 2 "mini_stm32:TLV1117LV_TO_SOT_223" H 8300 4800 50  0001 C CNN
F 3 "http://www.ti.com/lit/ds/symlink/tlv1117.pdf" H 8300 4800 50  0001 C CNN
	1    8300 4800
	1    0    0    -1  
$EndComp
Wire Wire Line
	7900 2400 7900 2150
Connection ~ 7900 2400
$Comp
L power:+5V #PWR0110
U 1 1 5E4E1BAA
P 7900 2150
F 0 "#PWR0110" H 7900 2000 50  0001 C CNN
F 1 "+5V" H 7915 2323 50  0000 C CNN
F 2 "" H 7900 2150 50  0001 C CNN
F 3 "" H 7900 2150 50  0001 C CNN
	1    7900 2150
	1    0    0    -1  
$EndComp
$Comp
L power:+5V #PWR0111
U 1 1 5E4E5DF2
P 7450 4800
F 0 "#PWR0111" H 7450 4650 50  0001 C CNN
F 1 "+5V" V 7465 4928 50  0000 L CNN
F 2 "" H 7450 4800 50  0001 C CNN
F 3 "" H 7450 4800 50  0001 C CNN
	1    7450 4800
	0    -1   -1   0   
$EndComp
$Comp
L Device:C_Small C11
U 1 1 5E4E6827
P 7700 5050
F 0 "C11" H 7792 5096 50  0000 L CNN
F 1 "1uF" H 7792 5005 50  0000 L CNN
F 2 "Capacitor_SMD:C_0603_1608Metric_Pad1.05x0.95mm_HandSolder" H 7700 5050 50  0001 C CNN
F 3 "~" H 7700 5050 50  0001 C CNN
	1    7700 5050
	1    0    0    -1  
$EndComp
$Comp
L Device:C_Small C12
U 1 1 5E4E71DF
P 8800 5050
F 0 "C12" H 8892 5096 50  0000 L CNN
F 1 "1uF" H 8892 5005 50  0000 L CNN
F 2 "Capacitor_SMD:C_0603_1608Metric_Pad1.05x0.95mm_HandSolder" H 8800 5050 50  0001 C CNN
F 3 "~" H 8800 5050 50  0001 C CNN
	1    8800 5050
	1    0    0    -1  
$EndComp
Wire Wire Line
	7700 5150 7700 5250
Wire Wire Line
	7700 5250 8300 5250
Wire Wire Line
	8800 5250 8800 5150
Connection ~ 8300 5250
Wire Wire Line
	8300 5250 8800 5250
Wire Wire Line
	8300 5100 8300 5250
Wire Wire Line
	8300 5250 8300 5400
Wire Wire Line
	8800 4950 8800 4800
Wire Wire Line
	8800 4800 8600 4800
Connection ~ 8600 4800
Wire Wire Line
	8600 4800 8550 4800
Wire Wire Line
	8000 4800 7700 4800
Wire Wire Line
	7700 4800 7700 4950
Wire Wire Line
	7450 4800 7700 4800
Connection ~ 7700 4800
Wire Wire Line
	8800 4800 9100 4800
Connection ~ 8800 4800
$Comp
L power:VDD #PWR0112
U 1 1 5E513486
P 9100 4800
F 0 "#PWR0112" H 9100 4650 50  0001 C CNN
F 1 "VDD" V 9117 4928 50  0000 L CNN
F 2 "" H 9100 4800 50  0001 C CNN
F 3 "" H 9100 4800 50  0001 C CNN
	1    9100 4800
	0    1    1    0   
$EndComp
$Comp
L power:GND #PWR0113
U 1 1 5E513EB4
P 8050 3900
F 0 "#PWR0113" H 8050 3650 50  0001 C CNN
F 1 "GND" H 8055 3727 50  0000 C CNN
F 2 "" H 8050 3900 50  0001 C CNN
F 3 "" H 8050 3900 50  0001 C CNN
	1    8050 3900
	1    0    0    -1  
$EndComp
Wire Wire Line
	5100 5900 5100 6050
Wire Wire Line
	5100 6050 5200 6050
Wire Wire Line
	5400 6050 5400 5900
Wire Wire Line
	5300 5900 5300 6050
Connection ~ 5300 6050
Wire Wire Line
	5300 6050 5400 6050
Wire Wire Line
	5200 5900 5200 6050
Connection ~ 5200 6050
Wire Wire Line
	5200 6050 5250 6050
Connection ~ 5250 6050
Wire Wire Line
	5250 6050 5300 6050
Wire Wire Line
	5250 6050 5250 6250
$Comp
L power:GND #PWR0107
U 1 1 5E549021
P 5250 6250
F 0 "#PWR0107" H 5250 6000 50  0001 C CNN
F 1 "GND" H 5255 6077 50  0000 C CNN
F 2 "" H 5250 6250 50  0001 C CNN
F 3 "" H 5250 6250 50  0001 C CNN
	1    5250 6250
	1    0    0    -1  
$EndComp
Connection ~ 6400 1050
Wire Wire Line
	6400 1050 6550 1050
Wire Wire Line
	6700 1100 6700 1050
Wire Wire Line
	6700 1050 6550 1050
Connection ~ 6550 1050
Wire Wire Line
	6950 1100 6950 1050
Wire Wire Line
	6950 1050 6700 1050
Connection ~ 6700 1050
Wire Wire Line
	6400 1050 6400 950 
$Comp
L power:VDD #PWR0115
U 1 1 5E569076
P 6400 950
F 0 "#PWR0115" H 6400 800 50  0001 C CNN
F 1 "VDD" H 6417 1123 50  0000 C CNN
F 2 "" H 6400 950 50  0001 C CNN
F 3 "" H 6400 950 50  0001 C CNN
	1    6400 950 
	1    0    0    -1  
$EndComp
$Comp
L Connector:Conn_01x20_Male J4
U 1 1 5E56DA56
P 2000 5650
F 0 "J4" H 1972 5624 50  0000 R CNN
F 1 "Conn_01x20_Male" H 1972 5533 50  0000 R CNN
F 2 "Connector_PinHeader_2.54mm:PinHeader_1x20_P2.54mm_Vertical" H 2000 5650 50  0001 C CNN
F 3 "~" H 2000 5650 50  0001 C CNN
	1    2000 5650
	-1   0    0    -1  
$EndComp
$Comp
L Connector:Conn_01x20_Male J5
U 1 1 5E5703BF
P 2450 5650
F 0 "J5" H 2558 6731 50  0000 C CNN
F 1 "Conn_01x20_Male" H 2558 6640 50  0000 C CNN
F 2 "Connector_PinHeader_2.54mm:PinHeader_1x20_P2.54mm_Vertical" H 2450 5650 50  0001 C CNN
F 3 "~" H 2450 5650 50  0001 C CNN
	1    2450 5650
	1    0    0    -1  
$EndComp
$Comp
L power:VDD #PWR0116
U 1 1 5E4047BF
P 5300 2700
F 0 "#PWR0116" H 5300 2550 50  0001 C CNN
F 1 "VDD" H 5317 2873 50  0000 C CNN
F 2 "" H 5300 2700 50  0001 C CNN
F 3 "" H 5300 2700 50  0001 C CNN
	1    5300 2700
	1    0    0    -1  
$EndComp
Wire Wire Line
	5100 2900 5100 2800
Wire Wire Line
	5100 2800 5200 2800
Wire Wire Line
	5500 2800 5500 2900
Wire Wire Line
	5400 2900 5400 2800
Connection ~ 5400 2800
Wire Wire Line
	5400 2800 5500 2800
Wire Wire Line
	5300 2900 5300 2800
Connection ~ 5300 2800
Wire Wire Line
	5300 2800 5400 2800
Wire Wire Line
	5300 2700 5300 2800
Wire Wire Line
	5200 2800 5200 2900
Connection ~ 5200 2800
Wire Wire Line
	5200 2800 5300 2800
$Comp
L power:GND #PWR0117
U 1 1 5E41DE43
P 6400 1500
F 0 "#PWR0117" H 6400 1250 50  0001 C CNN
F 1 "GND" H 6405 1327 50  0000 C CNN
F 2 "" H 6400 1500 50  0001 C CNN
F 3 "" H 6400 1500 50  0001 C CNN
	1    6400 1500
	1    0    0    -1  
$EndComp
Wire Wire Line
	6550 1400 6700 1400
Wire Wire Line
	6950 1400 6950 1300
Connection ~ 6550 1400
Wire Wire Line
	6700 1300 6700 1400
Connection ~ 6700 1400
Wire Wire Line
	6700 1400 6950 1400
Wire Wire Line
	5900 1400 5900 1300
Wire Wire Line
	6400 1300 6400 1400
Connection ~ 6400 1400
Wire Wire Line
	6400 1400 6550 1400
Wire Wire Line
	6400 1400 6400 1500
$Comp
L power:VDD #PWR0118
U 1 1 5E442A5E
P 2850 4750
F 0 "#PWR0118" H 2850 4600 50  0001 C CNN
F 1 "VDD" V 2850 4950 50  0000 C CNN
F 2 "" H 2850 4750 50  0001 C CNN
F 3 "" H 2850 4750 50  0001 C CNN
	1    2850 4750
	0    1    1    0   
$EndComp
$Comp
L power:GND #PWR0119
U 1 1 5E44300B
P 2850 4850
F 0 "#PWR0119" H 2850 4600 50  0001 C CNN
F 1 "GND" V 2855 4722 50  0000 R CNN
F 2 "" H 2850 4850 50  0001 C CNN
F 3 "" H 2850 4850 50  0001 C CNN
	1    2850 4850
	0    -1   -1   0   
$EndComp
$Comp
L power:+5V #PWR0120
U 1 1 5E444F57
P 2850 4950
F 0 "#PWR0120" H 2850 4800 50  0001 C CNN
F 1 "+5V" V 2850 5150 50  0000 C CNN
F 2 "" H 2850 4950 50  0001 C CNN
F 3 "" H 2850 4950 50  0001 C CNN
	1    2850 4950
	0    1    1    0   
$EndComp
Wire Wire Line
	2850 4750 2650 4750
Wire Wire Line
	2650 4850 2850 4850
Wire Wire Line
	2850 4950 2650 4950
Wire Wire Line
	2650 5050 2850 5050
Wire Wire Line
	2650 5150 2850 5150
Wire Wire Line
	2650 5250 2850 5250
Wire Wire Line
	2650 5350 2850 5350
Wire Wire Line
	2650 5450 2850 5450
Wire Wire Line
	2650 5550 2850 5550
Wire Wire Line
	2650 5650 2850 5650
Wire Wire Line
	2650 5750 2850 5750
Wire Wire Line
	2650 6050 2850 6050
Wire Wire Line
	2650 6150 2850 6150
Wire Wire Line
	2650 6250 2850 6250
Wire Wire Line
	2650 6350 2850 6350
Wire Wire Line
	2650 6450 2850 6450
Wire Wire Line
	2650 6550 2850 6550
Wire Wire Line
	2650 6650 2850 6650
Wire Wire Line
	1800 4750 1600 4750
Wire Wire Line
	1800 4850 1600 4850
Wire Wire Line
	1800 4950 1600 4950
Wire Wire Line
	1800 5050 1600 5050
Wire Wire Line
	1800 5150 1600 5150
Wire Wire Line
	1800 5250 1600 5250
Wire Wire Line
	1800 5350 1600 5350
Wire Wire Line
	1800 5450 1600 5450
Wire Wire Line
	1800 5550 1600 5550
Wire Wire Line
	1800 5650 1600 5650
Wire Wire Line
	1600 5750 1800 5750
Wire Wire Line
	1800 5850 1600 5850
Wire Wire Line
	1600 5950 1800 5950
Wire Wire Line
	1800 6050 1600 6050
Wire Wire Line
	1600 6150 1800 6150
Wire Wire Line
	1800 6250 1600 6250
Wire Wire Line
	1800 6450 1600 6450
Wire Wire Line
	1600 6550 1800 6550
Wire Wire Line
	1800 6650 1600 6650
Text GLabel 2850 5050 2    50   Input ~ 0
PB9
Text GLabel 2850 5150 2    50   Input ~ 0
PB8
Text GLabel 2850 5250 2    50   Input ~ 0
PB7
Text GLabel 2850 5350 2    50   Input ~ 0
PB6
Text GLabel 2850 5450 2    50   Input ~ 0
PB5
Text GLabel 2850 5550 2    50   Input ~ 0
PB4
Text GLabel 2850 5650 2    50   Input ~ 0
PB3
Text GLabel 2850 5750 2    50   Input ~ 0
PA15
Text GLabel 2850 5850 2    50   Input ~ 0
USB+
Text GLabel 2850 5950 2    50   Input ~ 0
USB-
Text GLabel 2850 6050 2    50   Input ~ 0
PA10
Text GLabel 2850 6150 2    50   Input ~ 0
PA9
Text GLabel 2850 6250 2    50   Input ~ 0
PA8
Text GLabel 2850 6350 2    50   Input ~ 0
PB15
Text GLabel 2850 6450 2    50   Input ~ 0
PB14
Text GLabel 2850 6550 2    50   Input ~ 0
PB13
Text GLabel 2850 6650 2    50   Input ~ 0
PB12
$Comp
L power:GND #PWR0121
U 1 1 5E581DAA
P 1600 6650
F 0 "#PWR0121" H 1600 6400 50  0001 C CNN
F 1 "GND" V 1605 6522 50  0000 R CNN
F 2 "" H 1600 6650 50  0001 C CNN
F 3 "" H 1600 6650 50  0001 C CNN
	1    1600 6650
	0    1    1    0   
$EndComp
$Comp
L power:GND #PWR0122
U 1 1 5E582403
P 1600 6550
F 0 "#PWR0122" H 1600 6300 50  0001 C CNN
F 1 "GND" V 1605 6422 50  0000 R CNN
F 2 "" H 1600 6550 50  0001 C CNN
F 3 "" H 1600 6550 50  0001 C CNN
	1    1600 6550
	0    1    1    0   
$EndComp
Text GLabel 1600 6350 0    50   Input ~ 0
PB11
Text GLabel 1600 6250 0    50   Input ~ 0
PB10
Text GLabel 1600 6050 0    50   Input ~ 0
PB1
Text GLabel 1600 5950 0    50   Input ~ 0
PB0
Text GLabel 1600 5850 0    50   Input ~ 0
PA7
Text GLabel 1600 5750 0    50   Input ~ 0
PA6
Text GLabel 1600 5650 0    50   Input ~ 0
PA5
Text GLabel 1600 5550 0    50   Input ~ 0
PA4
Text GLabel 1600 5450 0    50   Input ~ 0
PA3
Text GLabel 1600 5350 0    50   Input ~ 0
PA2
Text GLabel 1600 5250 0    50   Input ~ 0
PA1
Text GLabel 1600 5150 0    50   Input ~ 0
PA0
Text GLabel 1600 5050 0    50   Input ~ 0
PC15
Text GLabel 1600 4950 0    50   Input ~ 0
PC14
Text GLabel 1600 4850 0    50   Input ~ 0
PC13
$Comp
L power:VDD #PWR0124
U 1 1 5E58711B
P 1600 4750
F 0 "#PWR0124" H 1600 4600 50  0001 C CNN
F 1 "VDD" V 1600 4950 50  0000 C CNN
F 2 "" H 1600 4750 50  0001 C CNN
F 3 "" H 1600 4750 50  0001 C CNN
	1    1600 4750
	0    -1   -1   0   
$EndComp
Wire Wire Line
	5900 4400 6100 4400
Wire Wire Line
	5900 4200 6100 4200
Wire Wire Line
	5900 4300 6100 4300
Wire Wire Line
	6100 4500 5900 4500
Wire Wire Line
	5900 4600 6100 4600
Wire Wire Line
	6100 4700 5900 4700
Wire Wire Line
	5900 4800 6100 4800
Wire Wire Line
	6100 4900 5900 4900
Wire Wire Line
	5900 5000 6100 5000
Wire Wire Line
	6100 5100 5900 5100
Wire Wire Line
	5900 5200 6100 5200
Wire Wire Line
	6100 5700 5900 5700
Wire Wire Line
	5900 5300 6100 5300
Wire Wire Line
	6100 5400 5900 5400
Wire Wire Line
	5900 5500 6100 5500
Wire Wire Line
	6100 5600 5900 5600
Text GLabel 6100 4200 2    50   Input ~ 0
PA0
Text GLabel 6100 4300 2    50   Input ~ 0
PA1
Text GLabel 6100 4400 2    50   Input ~ 0
PA2
Text GLabel 6100 4500 2    50   Input ~ 0
PA3
Text GLabel 6100 4600 2    50   Input ~ 0
PA4
Text GLabel 6100 4700 2    50   Input ~ 0
PA5
Text GLabel 6100 4800 2    50   Input ~ 0
PA6
Text GLabel 6100 4900 2    50   Input ~ 0
PA7
Text GLabel 6100 5000 2    50   Input ~ 0
PA8
Text GLabel 6100 5100 2    50   Input ~ 0
PA9
Text GLabel 6100 5200 2    50   Input ~ 0
PA10
Text GLabel 6100 5700 2    50   Input ~ 0
PA15
Wire Wire Line
	4600 4200 4400 4200
Wire Wire Line
	4600 4300 4400 4300
Wire Wire Line
	4600 4400 4400 4400
Wire Wire Line
	4600 4500 4400 4500
Wire Wire Line
	4600 4600 4400 4600
Wire Wire Line
	4600 4700 4400 4700
Wire Wire Line
	4600 4800 4400 4800
Wire Wire Line
	4600 4900 4400 4900
Wire Wire Line
	4400 5000 4600 5000
Wire Wire Line
	4600 5100 4400 5100
Wire Wire Line
	4400 5200 4600 5200
Wire Wire Line
	4600 5300 4400 5300
Wire Wire Line
	4400 5400 4600 5400
Wire Wire Line
	4600 5500 4400 5500
Wire Wire Line
	4400 5600 4600 5600
Wire Wire Line
	4600 5700 4400 5700
Wire Wire Line
	4400 4000 4600 4000
Wire Wire Line
	4400 3900 4600 3900
Wire Wire Line
	4400 3800 4600 3800
Text GLabel 4400 3800 0    50   Input ~ 0
PC13
Text GLabel 4400 3900 0    50   Input ~ 0
PC14
Text GLabel 4400 4000 0    50   Input ~ 0
PC15
Text GLabel 4400 4200 0    50   Input ~ 0
PB0
Text GLabel 4400 4300 0    50   Input ~ 0
PB1
Text GLabel 4400 4400 0    50   Input ~ 0
PB2
Text GLabel 4400 4500 0    50   Input ~ 0
PB3
Text GLabel 4400 4600 0    50   Input ~ 0
PB4
Text GLabel 4400 4700 0    50   Input ~ 0
PB5
Text GLabel 4400 4800 0    50   Input ~ 0
PB6
Text GLabel 4400 4900 0    50   Input ~ 0
PB7
Text GLabel 4400 5000 0    50   Input ~ 0
PB8
Text GLabel 4400 5100 0    50   Input ~ 0
PB9
Text GLabel 4400 5200 0    50   Input ~ 0
PB10
Text GLabel 4400 5300 0    50   Input ~ 0
PB11
Text GLabel 4400 5400 0    50   Input ~ 0
PB12
Text GLabel 4400 5500 0    50   Input ~ 0
PB13
Text GLabel 4400 5600 0    50   Input ~ 0
PB14
Text GLabel 4400 5700 0    50   Input ~ 0
PB15
Wire Wire Line
	2650 5850 2850 5850
Wire Wire Line
	2850 5950 2650 5950
Wire Wire Line
	1800 6350 1600 6350
Wire Wire Line
	3200 1100 3400 1100
Wire Wire Line
	4450 3100 4450 2800
Wire Wire Line
	3400 1100 3400 1350
Text GLabel 3400 1350 3    50   Input ~ 0
RESET
Text GLabel 4450 2800 1    50   Input ~ 0
RESET
$Comp
L power:VDD #PWR0123
U 1 1 5E58267B
P 1600 6450
F 0 "#PWR0123" H 1600 6300 50  0001 C CNN
F 1 "VDD" V 1600 6650 50  0000 C CNN
F 2 "" H 1600 6450 50  0001 C CNN
F 3 "" H 1600 6450 50  0001 C CNN
	1    1600 6450
	0    -1   -1   0   
$EndComp
Text GLabel 1600 6150 0    50   Input ~ 0
PB2
Wire Wire Line
	6400 1100 6400 1050
Wire Wire Line
	7650 2800 7900 2800
Text Label 7700 3000 0    50   ~ 0
USB+
Text Label 7700 3100 0    50   ~ 0
USB-
Text Label 9100 3050 0    50   ~ 0
USB-
Text Label 9100 2800 0    50   ~ 0
USB+
Text Label 5900 5400 0    50   ~ 0
USB+
Text Label 5900 5300 0    50   ~ 0
USB-
Wire Wire Line
	5900 1050 6150 1050
Wire Wire Line
	5900 1400 6150 1400
Wire Wire Line
	6150 1300 6150 1400
Connection ~ 6150 1400
Wire Wire Line
	6150 1400 6400 1400
Wire Wire Line
	6150 1100 6150 1050
Connection ~ 6150 1050
Wire Wire Line
	6150 1050 6400 1050
Wire Wire Line
	4600 3600 4050 3600
Wire Wire Line
	4050 3600 4050 3300
Wire Wire Line
	4100 3750 4100 3500
Wire Wire Line
	4100 3500 4600 3500
Wire Wire Line
	3400 3750 4100 3750
Connection ~ 3400 3750
Connection ~ 3400 3300
Wire Wire Line
	3600 3300 3400 3300
Wire Wire Line
	4050 3300 3900 3300
Wire Wire Line
	2650 3500 2650 3300
Connection ~ 2650 3500
Wire Wire Line
	2450 3500 2650 3500
Wire Wire Line
	3400 3750 3100 3750
Wire Wire Line
	3400 3650 3400 3750
Wire Wire Line
	3400 3300 3400 3350
Wire Wire Line
	3100 3300 3400 3300
Wire Wire Line
	2650 3300 2800 3300
Wire Wire Line
	2650 3750 2650 3500
Wire Wire Line
	2800 3750 2650 3750
$Comp
L Device:R R2
U 1 1 5E40BF90
P 3750 3300
F 0 "R2" V 3543 3300 50  0000 C CNN
F 1 "1.3K" V 3634 3300 50  0000 C CNN
F 2 "Resistor_SMD:R_0603_1608Metric_Pad1.05x0.95mm_HandSolder" V 3680 3300 50  0001 C CNN
F 3 "~" H 3750 3300 50  0001 C CNN
	1    3750 3300
	0    1    1    0   
$EndComp
$Comp
L Device:C C2
U 1 1 5E40BBCB
P 2950 3750
F 0 "C2" V 2698 3750 50  0000 C CNN
F 1 "16pF" V 2789 3750 50  0000 C CNN
F 2 "Capacitor_SMD:C_0603_1608Metric_Pad1.05x0.95mm_HandSolder" H 2988 3600 50  0001 C CNN
F 3 "~" H 2950 3750 50  0001 C CNN
	1    2950 3750
	0    1    1    0   
$EndComp
$Comp
L Device:C C1
U 1 1 5E40B497
P 2950 3300
F 0 "C1" V 2698 3300 50  0000 C CNN
F 1 "16pF" V 2789 3300 50  0000 C CNN
F 2 "Capacitor_SMD:C_0603_1608Metric_Pad1.05x0.95mm_HandSolder" H 2988 3150 50  0001 C CNN
F 3 "~" H 2950 3300 50  0001 C CNN
	1    2950 3300
	0    1    1    0   
$EndComp
$Comp
L Device:Crystal Y1
U 1 1 5E40429E
P 3400 3500
F 0 "Y1" V 3354 3631 50  0000 L CNN
F 1 "8Mhz" V 3445 3631 50  0000 L CNN
F 2 "mini_stm32:Crystal_SMD_TXC_7A-2Pin_5x3.2mm_HandSoldering" H 3400 3500 50  0001 C CNN
F 3 "~" H 3400 3500 50  0001 C CNN
	1    3400 3500
	0    1    1    0   
$EndComp
$Comp
L power:GND #PWR0104
U 1 1 5E3FDC03
P 3400 2950
F 0 "#PWR0104" H 3400 2700 50  0001 C CNN
F 1 "GND" H 3405 2777 50  0000 C CNN
F 2 "" H 3400 2950 50  0001 C CNN
F 3 "" H 3400 2950 50  0001 C CNN
	1    3400 2950
	1    0    0    -1  
$EndComp
$EndSCHEMATC
